…
## Extract annotations

-   use `xmi2df` function to extract annotations specified by the `key`
    argument
-   Note: `key` queries the string contained in namespaces (e.g.,
    “custom” matches “custom” AND “custom2”)

``` r
# extract custom annotations from file
df_custom <- xmi2df(xmi_file, key = "custom")
df_custom
```

    ## # A tibble: 50 x 14
    ##    id    sofa  begin end   Akteur Frame Polarity Wiedervorlage layer       text 
    ##    <chr> <chr> <chr> <chr> <chr>  <chr> <chr>    <chr>         <chr>       <chr>
    ##  1 5881  1     0     84    6024   6075  -        false         Claim_multi 207 ~
    ##  2 6121  1     155   292   6604   6264  -        false         Claim_multi 207 ~
    ##  3 6650  1     429   599   6793   6844  -        false         Claim_multi 207 ~
    ##  4 6973  1     783   979   7122   7173  -        false         Claim_multi 207 ~
    ##  5 7302  1     1125  1230  7445   7496  -        false         Claim_multi 207 ~
    ##  6 7625  1     1348  1442  7771   7822  +        false         Claim_multi 213 ~
    ##  7 7951  1     1568  1733  8094   8145  +        false         Claim_multi 213 ~
    ##  8 8274  1     1885  1993  8417   8468  +        false         Claim_multi 213 ~
    ##  9 8597  1     2091  2282  8740   8791  +        false         Claim_multi 213 ~
    ## 10 8920  1     2442  2553  9277   9063  +        false         Claim_multi 213 ~
    ## # ... with 40 more rows, and 4 more variables: filename <chr>, role <chr>,
    ## #   target <chr>, quote <chr>

### Extract annotations from multiple documents (and namespaces)

-   include several namespaces or tags (layers also work,
    e.g. “Statement”)
-   iterate over multiple files and add index as new column (`file`)

``` r
# extract multiple layers
df_mult_layers <- xmi2df(xmi_file, key = c("custom", "Sentence"))  
df_mult_layers
```

    ## # A tibble: 70 x 14
    ##    id    sofa  begin end   layer    text  filename         Akteur Frame Polarity
    ##    <chr> <chr> <chr> <chr> <chr>    <chr> <chr>            <chr>  <chr> <chr>   
    ##  1 19    1     0     84    Sentence ""    extracted/examp~ <NA>   <NA>  <NA>    
    ##  2 24    1     85    153   Sentence ""    extracted/examp~ <NA>   <NA>  <NA>    
    ##  3 29    1     155   292   Sentence ""    extracted/examp~ <NA>   <NA>  <NA>    
    ##  4 34    1     293   427   Sentence ""    extracted/examp~ <NA>   <NA>  <NA>    
    ##  5 39    1     429   599   Sentence ""    extracted/examp~ <NA>   <NA>  <NA>    
    ##  6 44    1     600   781   Sentence ""    extracted/examp~ <NA>   <NA>  <NA>    
    ##  7 49    1     783   979   Sentence ""    extracted/examp~ <NA>   <NA>  <NA>    
    ##  8 54    1     980   1123  Sentence ""    extracted/examp~ <NA>   <NA>  <NA>    
    ##  9 59    1     1125  1230  Sentence ""    extracted/examp~ <NA>   <NA>  <NA>    
    ## 10 64    1     1231  1346  Sentence ""    extracted/examp~ <NA>   <NA>  <NA>    
    ## # ... with 60 more rows, and 4 more variables: Wiedervorlage <chr>, role <chr>,
    ## #   target <chr>, quote <chr>

``` r
# extract multiple files (and layers)
df_mult_files <- purrr::map_df(c(xmi_file, xmi_file), xmi2df, key = c("custom", "Sentence"), .id = "file")  
df_mult_files
```

    ## # A tibble: 140 x 15
    ##    file  id    sofa  begin end   layer    text  filename   Akteur Frame Polarity
    ##    <chr> <chr> <chr> <chr> <chr> <chr>    <chr> <chr>      <chr>  <chr> <chr>   
    ##  1 1     19    1     0     84    Sentence ""    extracted~ <NA>   <NA>  <NA>    
    ##  2 1     24    1     85    153   Sentence ""    extracted~ <NA>   <NA>  <NA>    
    ##  3 1     29    1     155   292   Sentence ""    extracted~ <NA>   <NA>  <NA>    
    ##  4 1     34    1     293   427   Sentence ""    extracted~ <NA>   <NA>  <NA>    
    ##  5 1     39    1     429   599   Sentence ""    extracted~ <NA>   <NA>  <NA>    
    ##  6 1     44    1     600   781   Sentence ""    extracted~ <NA>   <NA>  <NA>    
    ##  7 1     49    1     783   979   Sentence ""    extracted~ <NA>   <NA>  <NA>    
    ##  8 1     54    1     980   1123  Sentence ""    extracted~ <NA>   <NA>  <NA>    
    ##  9 1     59    1     1125  1230  Sentence ""    extracted~ <NA>   <NA>  <NA>    
    ## 10 1     64    1     1231  1346  Sentence ""    extracted~ <NA>   <NA>  <NA>    
    ## # ... with 130 more rows, and 4 more variables: Wiedervorlage <chr>,
    ## #   role <chr>, target <chr>, quote <chr>
…
